{
  "stats": {
    "suites": 4,
    "tests": 4,
    "passes": 0,
    "pending": 0,
    "failures": 4,
    "start": "2018-05-15T01:45:52.762Z",
    "end": "2018-05-15T01:49:28.864Z",
    "duration": 216102,
    "testsRegistered": 4,
    "passPercent": 0,
    "pendingPercent": 0,
    "other": 0,
    "hasOther": false,
    "skipped": 0,
    "hasSkipped": false,
    "passPercentClass": "danger",
    "pendingPercentClass": "danger"
  },
  "suites": {
    "uuid": "dc6f5fa8-eb1f-4693-a0ab-0c2d69a3b22c",
    "title": "",
    "fullFile": "",
    "file": "",
    "beforeHooks": [],
    "afterHooks": [],
    "tests": [],
    "suites": [
      {
        "uuid": "6546e39b-ad26-4f2b-83c7-b310a6db2f30",
        "title": "Case 5 Achivement With Click Function by get XPath",
        "fullFile": "/home/alders/TA/TA_II/case_1_achivment_test.js",
        "file": "/case_1_achivment_test.js",
        "beforeHooks": [
          {
            "title": "\"before all\" hook: codeceptjs.beforeSuite",
            "fullTitle": "Case 5 Achivement With Click Function by get XPath \"before all\" hook: codeceptjs.beforeSuite",
            "timedOut": false,
            "duration": 4,
            "pass": false,
            "fail": false,
            "pending": false,
            "code": "scenario.suiteSetup(suite)",
            "err": {},
            "isRoot": false,
            "uuid": "37eba8db-c623-4096-9c2d-e113449392fd",
            "isHook": true,
            "skipped": false
          },
          {
            "title": "\"before each\" hook: codeceptjs.before",
            "fullTitle": "Case 5 Achivement With Click Function by get XPath \"before each\" hook: codeceptjs.before",
            "timedOut": false,
            "duration": 46548,
            "pass": false,
            "fail": false,
            "pending": false,
            "code": "scenario.setup(suite)",
            "err": {},
            "isRoot": false,
            "uuid": "97367f36-53d9-4950-a6dc-cb7f08f2093c",
            "isHook": true,
            "skipped": false
          }
        ],
        "afterHooks": [
          {
            "title": "\"after all\" hook: codeceptjs.afterSuite",
            "fullTitle": "Case 5 Achivement With Click Function by get XPath \"after all\" hook: codeceptjs.afterSuite",
            "timedOut": false,
            "duration": 0,
            "pass": false,
            "fail": false,
            "pending": false,
            "code": "scenario.suiteTeardown(suite)",
            "err": {},
            "isRoot": false,
            "uuid": "e1873ef2-3dab-4b24-b1d5-44608fdccd75",
            "isHook": true,
            "skipped": false
          },
          {
            "title": "\"after each\" hook: finalize codeceptjs",
            "fullTitle": "Case 5 Achivement With Click Function by get XPath \"after each\" hook: finalize codeceptjs",
            "timedOut": false,
            "duration": 2760,
            "pass": false,
            "fail": false,
            "pending": false,
            "code": "scenario.teardown(suite)",
            "err": {},
            "isRoot": false,
            "uuid": "93d5202e-119d-443f-82af-b81278e8bac8",
            "isHook": true,
            "skipped": false
          }
        ],
        "tests": [
          {
            "title": "Test Achivement",
            "fullTitle": "Case 5 Achivement With Click Function by get XPath: Test Achivement",
            "timedOut": false,
            "duration": 14567,
            "state": "failed",
            "pass": false,
            "fail": true,
            "pending": false,
            "code": "I.wait(3);\nI.click(\"//android.widget.Button[@resource-id='com.android.packageinstaller:id/permission_allow_button']\");\nI.wait(1);\nI.click(\"//android.widget.Button[@resource-id='com.android.packageinstaller:id/permission_allow_button']\");\nI.wait(1);\nI.click(\"//android.widget.Button[@resource-id='com.android.packageinstaller:id/permission_allow_button']\");\nI.wait(1);\nI.click(\"//android.widget.Button[@resource-id='com.android.packageinstaller:id/permission_allow_button']\");\nI.wait(1);\nI.click(\"//android.widget.ImageView[@resource-id='praktikum.develops.a11414001.digitourapplication:id/imageViewAchievement']\");\nI.wait(1);\nI.see('Achievement');\nI.wait(3);",
            "err": {
              "message": "Error: expected current context //* to include \"Achievement\"",
              "estack": "expected current context //* to include \"Achievement\"\n\nScenario Steps:\n\n- I.see(\"Achievement\") at Test.Scenario (case_1_achivment_test.js:26:4)\n- I.wait(1) at Test.Scenario (case_1_achivment_test.js:24:4)\n- I.click(\"//android.widget.ImageView[@resource-id='praktikum.develops.a11414001.digitourapplication:id/imageViewAchievement']\") at Test.Scenario (case_1_achivment_test.js:22:4)\n- I.wait(1) at Test.Scenario (case_1_achivment_test.js:20:4)\n- I.click(\"//android.widget.Button[@resource-id='com.android.packageinstaller:id/permission_allow_button']\") at Test.Scenario (case_1_achivment_test.js:18:4)\n- I.wait(1) at Test.Scenario (case_1_achivment_test.js:16:4)\n- I.click(\"//android.widget.Button[@resource-id='com.android.packageinstaller:id/permission_allow_button']\") at Test.Scenario (case_1_achivment_test.js:14:4)\n- I.wait(1) at Test.Scenario (case_1_achivment_test.js:12:4)\n- I.click(\"//android.widget.Button[@resource-id='com.android.packageinstaller:id/permission_allow_button']\") at Test.Scenario (case_1_achivment_test.js:10:4)\n- I.wait(1) at Test.Scenario (case_1_achivment_test.js:8:4)\n- I.click(\"//android.widget.Button[@resource-id='com.android.packageinstaller:id/permission_allow_button']\") at Test.Scenario (case_1_achivment_test.js:6:4)\n- I.wait(3) at Test.Scenario (case_1_achivment_test.js:4:4)\n\n",
              "diff": "- \n- ___(next element)___\n- \n- ___(next element)___\n- \n- ___(next element)___\n- \n- ___(next element)___\n- \n- ___(next element)___\n- --( 33 lines more )---\n+ Achievement\n"
            },
            "isRoot": false,
            "uuid": "bbe4f157-41cd-4057-b54a-9578cc2e986b",
            "isHook": false,
            "skipped": false
          }
        ],
        "suites": [],
        "passes": [],
        "failures": [
          "bbe4f157-41cd-4057-b54a-9578cc2e986b"
        ],
        "pending": [],
        "skipped": [],
        "duration": 14567,
        "root": false,
        "rootEmpty": false,
        "_timeout": 0
      },
      {
        "uuid": "aff51dab-dc7a-48f9-bcab-7765594d0524",
        "title": "Case 5 Achivement With Tap Function by get XPath",
        "fullFile": "/home/alders/TA/TA_II/case_2_achivment_test.js",
        "file": "/case_2_achivment_test.js",
        "beforeHooks": [
          {
            "title": "\"before all\" hook: codeceptjs.beforeSuite",
            "fullTitle": "Case 5 Achivement With Tap Function by get XPath \"before all\" hook: codeceptjs.beforeSuite",
            "timedOut": false,
            "duration": 0,
            "pass": false,
            "fail": false,
            "pending": false,
            "code": "scenario.suiteSetup(suite)",
            "err": {},
            "isRoot": false,
            "uuid": "e6625529-f6ea-4fa5-b5e6-9ba3b0eaef53",
            "isHook": true,
            "skipped": false
          },
          {
            "title": "\"before each\" hook: codeceptjs.before",
            "fullTitle": "Case 5 Achivement With Tap Function by get XPath \"before each\" hook: codeceptjs.before",
            "timedOut": false,
            "duration": 33636,
            "pass": false,
            "fail": false,
            "pending": false,
            "code": "scenario.setup(suite)",
            "err": {},
            "isRoot": false,
            "uuid": "559d9f2f-2e36-4324-87d5-e296c918585b",
            "isHook": true,
            "skipped": false
          }
        ],
        "afterHooks": [
          {
            "title": "\"after all\" hook: codeceptjs.afterSuite",
            "fullTitle": "Case 5 Achivement With Tap Function by get XPath \"after all\" hook: codeceptjs.afterSuite",
            "timedOut": false,
            "duration": 1,
            "pass": false,
            "fail": false,
            "pending": false,
            "code": "scenario.suiteTeardown(suite)",
            "err": {},
            "isRoot": false,
            "uuid": "fc962cdc-b4a0-4234-ab42-f86c2175f939",
            "isHook": true,
            "skipped": false
          },
          {
            "title": "\"after each\" hook: finalize codeceptjs",
            "fullTitle": "Case 5 Achivement With Tap Function by get XPath \"after each\" hook: finalize codeceptjs",
            "timedOut": false,
            "duration": 2983,
            "pass": false,
            "fail": false,
            "pending": false,
            "code": "scenario.teardown(suite)",
            "err": {},
            "isRoot": false,
            "uuid": "07eecc32-a37b-46a4-a5cd-769f9d6bfcb4",
            "isHook": true,
            "skipped": false
          }
        ],
        "tests": [
          {
            "title": "Test Achivement",
            "fullTitle": "Case 5 Achivement With Tap Function by get XPath: Test Achivement",
            "timedOut": false,
            "duration": 15090,
            "state": "failed",
            "pass": false,
            "fail": true,
            "pending": false,
            "code": "I.wait(3);\nI.tap(\"//android.widget.Button[@resource-id='com.android.packageinstaller:id/permission_allow_button']\");\nI.wait(1);\nI.tap(\"//android.widget.Button[@resource-id='com.android.packageinstaller:id/permission_allow_button']\");\nI.wait(1);\nI.tap(\"//android.widget.Button[@resource-id='com.android.packageinstaller:id/permission_allow_button']\");\nI.wait(1);\nI.tap(\"//android.widget.Button[@resource-id='com.android.packageinstaller:id/permission_allow_button']\");\nI.wait(1);\nI.tap(\"//android.widget.ImageView[@resource-id='praktikum.develops.a11414001.digitourapplication:id/imageViewAchievement']\");\nI.wait(1);\nI.see('Achievement');\nI.wait(3);",
            "err": {
              "message": "Error: expected current context //* to include \"Achievement\"",
              "estack": "expected current context //* to include \"Achievement\"\n\nScenario Steps:\n\n- I.see(\"Achievement\") at Test.Scenario (case_2_achivment_test.js:26:4)\n- I.wait(1) at Test.Scenario (case_2_achivment_test.js:24:4)\n- I.tap(\"//android.widget.ImageView[@resource-id='praktikum.develops.a11414001.digitourapplication:id/imageViewAchievement']\") at Test.Scenario (case_2_achivment_test.js:22:4)\n- I.wait(1) at Test.Scenario (case_2_achivment_test.js:20:4)\n- I.tap(\"//android.widget.Button[@resource-id='com.android.packageinstaller:id/permission_allow_button']\") at Test.Scenario (case_2_achivment_test.js:18:4)\n- I.wait(1) at Test.Scenario (case_2_achivment_test.js:16:4)\n- I.tap(\"//android.widget.Button[@resource-id='com.android.packageinstaller:id/permission_allow_button']\") at Test.Scenario (case_2_achivment_test.js:14:4)\n- I.wait(1) at Test.Scenario (case_2_achivment_test.js:12:4)\n- I.tap(\"//android.widget.Button[@resource-id='com.android.packageinstaller:id/permission_allow_button']\") at Test.Scenario (case_2_achivment_test.js:10:4)\n- I.wait(1) at Test.Scenario (case_2_achivment_test.js:8:4)\n- I.tap(\"//android.widget.Button[@resource-id='com.android.packageinstaller:id/permission_allow_button']\") at Test.Scenario (case_2_achivment_test.js:6:4)\n- I.wait(3) at Test.Scenario (case_2_achivment_test.js:4:4)\n\n",
              "diff": "- \n- ___(next element)___\n- \n- ___(next element)___\n- \n- ___(next element)___\n- \n- ___(next element)___\n- \n- ___(next element)___\n- --( 33 lines more )---\n+ Achievement\n"
            },
            "isRoot": false,
            "uuid": "14161135-a0ff-4c1f-ab50-c8e288242cdf",
            "isHook": false,
            "skipped": false
          }
        ],
        "suites": [],
        "passes": [],
        "failures": [
          "14161135-a0ff-4c1f-ab50-c8e288242cdf"
        ],
        "pending": [],
        "skipped": [],
        "duration": 15090,
        "root": false,
        "rootEmpty": false,
        "_timeout": 0
      },
      {
        "uuid": "05b72875-ad83-42d0-8de2-428d2ca9ec11",
        "title": "Case 5 Achivement With Click Function by get XPath that take other parameter except resource-id",
        "fullFile": "/home/alders/TA/TA_II/case_3_achivment_test.js",
        "file": "/case_3_achivment_test.js",
        "beforeHooks": [
          {
            "title": "\"before all\" hook: codeceptjs.beforeSuite",
            "fullTitle": "Case 5 Achivement With Click Function by get XPath that take other parameter except resource-id \"before all\" hook: codeceptjs.beforeSuite",
            "timedOut": false,
            "duration": 0,
            "pass": false,
            "fail": false,
            "pending": false,
            "code": "scenario.suiteSetup(suite)",
            "err": {},
            "isRoot": false,
            "uuid": "da83c301-551f-4be5-8dd2-d413ff7fb30d",
            "isHook": true,
            "skipped": false
          },
          {
            "title": "\"before each\" hook: codeceptjs.before",
            "fullTitle": "Case 5 Achivement With Click Function by get XPath that take other parameter except resource-id \"before each\" hook: codeceptjs.before",
            "timedOut": false,
            "duration": 32854,
            "pass": false,
            "fail": false,
            "pending": false,
            "code": "scenario.setup(suite)",
            "err": {},
            "isRoot": false,
            "uuid": "71402b0c-4fcf-4ed4-bf94-820f48e710c2",
            "isHook": true,
            "skipped": false
          }
        ],
        "afterHooks": [
          {
            "title": "\"after all\" hook: codeceptjs.afterSuite",
            "fullTitle": "Case 5 Achivement With Click Function by get XPath that take other parameter except resource-id \"after all\" hook: codeceptjs.afterSuite",
            "timedOut": false,
            "duration": 0,
            "pass": false,
            "fail": false,
            "pending": false,
            "code": "scenario.suiteTeardown(suite)",
            "err": {},
            "isRoot": false,
            "uuid": "5e0f3fb2-de34-46e2-bcff-fde1b2e3007e",
            "isHook": true,
            "skipped": false
          },
          {
            "title": "\"after each\" hook: finalize codeceptjs",
            "fullTitle": "Case 5 Achivement With Click Function by get XPath that take other parameter except resource-id \"after each\" hook: finalize codeceptjs",
            "timedOut": false,
            "duration": 2808,
            "pass": false,
            "fail": false,
            "pending": false,
            "code": "scenario.teardown(suite)",
            "err": {},
            "isRoot": false,
            "uuid": "415c28a3-bbfd-4658-8d66-4b72b315781c",
            "isHook": true,
            "skipped": false
          }
        ],
        "tests": [
          {
            "title": "Test Achivement",
            "fullTitle": "Case 5 Achivement With Click Function by get XPath that take other parameter except resource-id: Test Achivement",
            "timedOut": false,
            "duration": 15888,
            "state": "failed",
            "pass": false,
            "fail": true,
            "pending": false,
            "code": "I.wait(3);\nI.click(\"//android.widget.Button[@text='ALLOW']\");\nI.wait(1);\nI.click(\"//android.widget.Button[@text='ALLOW']\");\nI.wait(1);\nI.click(\"//android.widget.Button[@text='ALLOW']\");\nI.wait(1);\nI.click(\"//android.widget.Button[@text='ALLOW']\");\nI.wait(1);\nI.click(\"//android.widget.ImageView[@bounds='[540,822][1080,1422]']\");\nI.wait(1);\nI.see('Achievement');\nI.wait(3);",
            "err": {
              "message": "Error: expected current context //* to include \"Achievement\"",
              "estack": "expected current context //* to include \"Achievement\"\n\nScenario Steps:\n\n- I.see(\"Achievement\") at Test.Scenario (case_3_achivment_test.js:26:4)\n- I.wait(1) at Test.Scenario (case_3_achivment_test.js:24:4)\n- I.click(\"//android.widget.ImageView[@bounds='[540,822][1080,1422]']\") at Test.Scenario (case_3_achivment_test.js:22:4)\n- I.wait(1) at Test.Scenario (case_3_achivment_test.js:20:4)\n- I.click(\"//android.widget.Button[@text='ALLOW']\") at Test.Scenario (case_3_achivment_test.js:18:4)\n- I.wait(1) at Test.Scenario (case_3_achivment_test.js:16:4)\n- I.click(\"//android.widget.Button[@text='ALLOW']\") at Test.Scenario (case_3_achivment_test.js:14:4)\n- I.wait(1) at Test.Scenario (case_3_achivment_test.js:12:4)\n- I.click(\"//android.widget.Button[@text='ALLOW']\") at Test.Scenario (case_3_achivment_test.js:10:4)\n- I.wait(1) at Test.Scenario (case_3_achivment_test.js:8:4)\n- I.click(\"//android.widget.Button[@text='ALLOW']\") at Test.Scenario (case_3_achivment_test.js:6:4)\n- I.wait(3) at Test.Scenario (case_3_achivment_test.js:4:4)\n\n",
              "diff": "- \n- ___(next element)___\n- \n- ___(next element)___\n- \n- ___(next element)___\n- \n- ___(next element)___\n- \n- ___(next element)___\n- --( 33 lines more )---\n+ Achievement\n"
            },
            "isRoot": false,
            "uuid": "03f135e4-624d-45f8-92e4-9c503b65ed22",
            "isHook": false,
            "skipped": false
          }
        ],
        "suites": [],
        "passes": [],
        "failures": [
          "03f135e4-624d-45f8-92e4-9c503b65ed22"
        ],
        "pending": [],
        "skipped": [],
        "duration": 15888,
        "root": false,
        "rootEmpty": false,
        "_timeout": 0
      },
      {
        "uuid": "cfba3784-f7fb-4def-bde0-ae0aa301b618",
        "title": "Case 5 Achivement With Tap Function by get XPath that take other parameter except resource-id",
        "fullFile": "/home/alders/TA/TA_II/case_4_achivment_test.js",
        "file": "/case_4_achivment_test.js",
        "beforeHooks": [
          {
            "title": "\"before all\" hook: codeceptjs.beforeSuite",
            "fullTitle": "Case 5 Achivement With Tap Function by get XPath that take other parameter except resource-id \"before all\" hook: codeceptjs.beforeSuite",
            "timedOut": false,
            "duration": 0,
            "pass": false,
            "fail": false,
            "pending": false,
            "code": "scenario.suiteSetup(suite)",
            "err": {},
            "isRoot": false,
            "uuid": "562e6f6b-ce90-44cf-9c2d-2b84bb0e1834",
            "isHook": true,
            "skipped": false
          },
          {
            "title": "\"before each\" hook: codeceptjs.before",
            "fullTitle": "Case 5 Achivement With Tap Function by get XPath that take other parameter except resource-id \"before each\" hook: codeceptjs.before",
            "timedOut": false,
            "duration": 32803,
            "pass": false,
            "fail": false,
            "pending": false,
            "code": "scenario.setup(suite)",
            "err": {},
            "isRoot": false,
            "uuid": "1437f456-a322-49ad-be5b-e7521f78e6a5",
            "isHook": true,
            "skipped": false
          }
        ],
        "afterHooks": [
          {
            "title": "\"after all\" hook: codeceptjs.afterSuite",
            "fullTitle": "Case 5 Achivement With Tap Function by get XPath that take other parameter except resource-id \"after all\" hook: codeceptjs.afterSuite",
            "timedOut": false,
            "duration": 0,
            "pass": false,
            "fail": false,
            "pending": false,
            "code": "scenario.suiteTeardown(suite)",
            "err": {},
            "isRoot": false,
            "uuid": "8ae085a9-942e-4871-a375-14aed9856f9c",
            "isHook": true,
            "skipped": false
          },
          {
            "title": "\"after each\" hook: finalize codeceptjs",
            "fullTitle": "Case 5 Achivement With Tap Function by get XPath that take other parameter except resource-id \"after each\" hook: finalize codeceptjs",
            "timedOut": false,
            "duration": 2799,
            "pass": false,
            "fail": false,
            "pending": false,
            "code": "scenario.teardown(suite)",
            "err": {},
            "isRoot": false,
            "uuid": "3bfa7368-c766-4c4e-95e9-3b449802dcd6",
            "isHook": true,
            "skipped": false
          }
        ],
        "tests": [
          {
            "title": "Test Achivement",
            "fullTitle": "Case 5 Achivement With Tap Function by get XPath that take other parameter except resource-id: Test Achivement",
            "timedOut": false,
            "duration": 13330,
            "state": "failed",
            "pass": false,
            "fail": true,
            "pending": false,
            "code": "I.wait(3);\nI.tap(\"//android.widget.Button[@text='ALLOW']\");\nI.wait(1);\nI.tap(\"//android.widget.Button[@text='ALLOW']\");\nI.wait(1);\nI.tap(\"//android.widget.Button[@text='ALLOW']\");\nI.wait(1);\nI.tap(\"//android.widget.Button[@text='ALLOW']\");\nI.wait(1);\nI.tap(\"//android.widget.ImageView[@bounds='[540,822][1080,1422]']\");\nI.wait(1);\nI.see('Achievement');\nI.wait(3);",
            "err": {
              "message": "Error: expected current context //* to include \"Achievement\"",
              "estack": "expected current context //* to include \"Achievement\"\n\nScenario Steps:\n\n- I.see(\"Achievement\") at Test.Scenario (case_4_achivment_test.js:26:4)\n- I.wait(1) at Test.Scenario (case_4_achivment_test.js:24:4)\n- I.tap(\"//android.widget.ImageView[@bounds='[540,822][1080,1422]']\") at Test.Scenario (case_4_achivment_test.js:22:4)\n- I.wait(1) at Test.Scenario (case_4_achivment_test.js:20:4)\n- I.tap(\"//android.widget.Button[@text='ALLOW']\") at Test.Scenario (case_4_achivment_test.js:18:4)\n- I.wait(1) at Test.Scenario (case_4_achivment_test.js:16:4)\n- I.tap(\"//android.widget.Button[@text='ALLOW']\") at Test.Scenario (case_4_achivment_test.js:14:4)\n- I.wait(1) at Test.Scenario (case_4_achivment_test.js:12:4)\n- I.tap(\"//android.widget.Button[@text='ALLOW']\") at Test.Scenario (case_4_achivment_test.js:10:4)\n- I.wait(1) at Test.Scenario (case_4_achivment_test.js:8:4)\n- I.tap(\"//android.widget.Button[@text='ALLOW']\") at Test.Scenario (case_4_achivment_test.js:6:4)\n- I.wait(3) at Test.Scenario (case_4_achivment_test.js:4:4)\n\n",
              "diff": "- \n- ___(next element)___\n- \n- ___(next element)___\n- \n- ___(next element)___\n- \n- ___(next element)___\n- \n- ___(next element)___\n- --( 33 lines more )---\n+ Achievement\n"
            },
            "isRoot": false,
            "uuid": "81b95243-8d3f-4327-8a15-75348d6155b2",
            "isHook": false,
            "skipped": false
          }
        ],
        "suites": [],
        "passes": [],
        "failures": [
          "81b95243-8d3f-4327-8a15-75348d6155b2"
        ],
        "pending": [],
        "skipped": [],
        "duration": 13330,
        "root": false,
        "rootEmpty": false,
        "_timeout": 0
      }
    ],
    "passes": [],
    "failures": [],
    "pending": [],
    "skipped": [],
    "duration": 0,
    "root": true,
    "rootEmpty": true,
    "_timeout": 0
  },
  "copyrightYear": 2018
}